<svg width="66" height="64" viewBox="0 0 66 64" fill="none" xmlns="http://www.w3.org/2000/svg">
<path d="M40.806 1H24.707V17.825C24.707 20.302 28.33 22.3123 32.7968 22.3123C37.2665 22.3123 40.7743 20.3021 40.7743 17.825C40.7743 17.606 40.8043 1 40.8043 1H40.806Z" fill="white" stroke="#20201E" stroke-width="1.21069"/>
<path d="M40.8051 1H24.7061V15.426H40.8051V1Z" fill="white" stroke="#20201E" stroke-width="1.21069"/>
<path d="M24.7061 1L40.8061 15.425" stroke="#20201E" stroke-width="1.21069"/>
<path d="M40.8061 1L24.7061 15.425" stroke="#20201E" stroke-width="1.21069"/>
<path d="M53.5461 57.4946C47.2824 54.4038 40.4741 52.7788 33.0171 52.7788C25.5601 52.7788 18.4291 54.5117 12.1641 57.602C18.4292 60.6928 25.4391 62.4726 32.8951 62.4726C40.3551 62.4826 47.2851 60.5926 53.5451 57.5026L53.5461 57.4946Z" fill="white" stroke="#20201E" stroke-width="1.21069" stroke-linejoin="round"/>
<path d="M56.6754 46.8948C57.0348 46.5803 57.3912 46.2585 57.7408 45.9192C65.3111 38.5535 67.0455 28.0562 61.6138 22.4732C56.1802 16.8897 45.6408 18.3365 38.0708 25.7017C35.8091 27.9014 34.0737 30.3814 32.8892 32.9258C31.7056 30.3814 29.9693 27.9014 27.7085 25.7017C20.1387 18.3365 9.59653 16.8897 4.16552 22.4732C-1.26758 28.0562 0.466325 38.5542 8.03763 45.9192C8.38822 46.2595 8.74612 46.5828 9.10792 46.8972C15.6445 44.4426 23.9069 42.9758 32.8949 42.9758C41.8749 42.9758 50.1349 44.4458 56.6649 46.8958L56.6754 46.8948Z" fill="white" stroke="#20201E" stroke-width="1.21069" stroke-linejoin="bevel"/>
<path d="M32.8955 32.9347C34.0801 30.3898 35.8154 27.9103 38.0771 25.7116C39.9199 23.9167 41.9414 22.4762 44.0224 21.4006C40.5712 20.4299 36.8232 19.8972 32.9014 19.8972C28.9776 19.8972 25.2256 20.4314 21.7734 21.4036C23.8515 22.4788 25.872 23.9182 27.7148 25.7117C29.9748 27.9117 31.7048 30.3917 32.8948 32.9317L32.8955 32.9347Z" fill="white" stroke="#20201E" stroke-width="1.21069"/>
<path d="M56.5863 46.8948L56.5824 46.8894C50.0492 44.4377 41.7914 42.9734 32.8114 42.9734C23.8236 42.9734 15.5614 44.4402 9.02539 46.8948C9.02539 46.8948 12.1606 49.3504 12.6143 51.1643C13.0674 52.9768 13.2617 55.5764 12.1724 57.5974C18.4366 54.5071 25.5684 52.7742 33.0254 52.7742C40.3398 52.7742 47.3814 54.51 53.5544 57.49C52.5583 55.4944 52.5563 52.927 52.9977 51.1643C53.4477 49.3643 56.5878 46.9043 56.5878 46.9043L56.5863 46.8948Z" fill="white" stroke="#20201E" stroke-width="1.21069" stroke-linejoin="bevel"/>
<path d="M12.166 57.6047C18.4302 54.5144 25.562 52.7815 33.019 52.7815C40.3334 52.7815 47.374 54.5173 53.548 57.4973C53.1242 56.6448 52.6789 54.4675 52.7502 53.2532C46.5451 50.8138 39.8722 49.4802 32.9202 49.4802C25.888 49.4802 19.1442 50.8415 12.8802 53.3322C12.9602 55.5822 12.6402 56.7122 12.1702 57.5922L12.166 57.6047Z" fill="white" stroke="#20201E" stroke-width="1.21069" stroke-linejoin="bevel"/>
<path d="M29.8359 46.3146L32.9359 47.8646L36.0259 46.3146L32.9359 44.7646L29.8359 46.3146Z" fill="black"/>
<path d="M17.166 48.3347L20.466 49.3647L23.276 47.3347L19.976 46.3047L17.166 48.3347Z" fill="black"/>
<path d="M48.6959 48.3347L45.3959 49.3647L42.5859 47.3347L45.8859 46.3047L48.6959 48.3347Z" fill="black"/>
<path d="M32.8955 24.3341C36.0431 24.3341 38.5947 22.4501 38.5947 20.1259C38.5947 17.8018 36.0431 15.9177 32.8955 15.9177C29.7479 15.9177 27.1963 17.8018 27.1963 20.1259C27.1963 22.4501 29.7479 24.3341 32.8955 24.3341Z" fill="white" stroke="#20201E" stroke-width="1.21069"/>
</svg>
