<svg width="69" height="66" viewBox="0 0 69 66" fill="none" xmlns="http://www.w3.org/2000/svg">
<path d="M17.9369 8.45153C17.9369 8.45153 19.0463 2.49013 19.0463 1.65853C19.0463 0.826932 19.8773 0.687826 20.7094 1.7972C21.5414 2.9061 25.2846 8.3128 25.2846 8.3128L17.9346 8.4508L17.9369 8.45153Z" fill="white" stroke="#20201E" stroke-width="1.11079"/>
<path d="M67.6763 54.1777C67.3003 51.4892 66.7866 48.9262 66.1606 46.4897L64.1518 45.6879L65.4926 44.0834C64.729 41.5062 63.8412 39.0795 62.8647 36.7982L60.9633 36.2611L61.9038 34.6537C60.8823 32.4843 59.7856 30.4608 58.647 28.5765L56.8745 28.2205L57.5112 26.7571C56.2339 24.7874 54.9223 22.9885 53.6206 21.3557L51.7446 21.1502L52.2456 19.6892C50.7231 17.9011 49.2397 16.346 47.8677 15.0174L45.9917 14.9119L46.3188 13.5677C42.9721 10.5394 40.6069 9.06568 40.6069 9.06568L36.3559 10.3601C36.3559 10.3601 34.3237 9.25068 32.6596 8.14178C32.6596 8.14178 31.5502 4.44498 31.1821 2.41178C30.811 0.378584 29.7026 1.30239 29.3325 1.8571C28.9634 2.41179 25.1274 6.6623 25.1274 6.6623C25.1274 6.6623 22.8334 6.34882 21.1987 6.6623C18.7973 7.12568 17.688 8.74239 14.9135 11.3762C12.893 13.2976 11.6801 14.9817 10.9877 16.7829C10.2944 18.5851 11.1254 18.5851 10.85 20.2487C10.5707 21.9123 3.08441 34.3887 2.25431 35.9137C1.4213 37.4386 -0.586487 42.1022 3.36271 45.0631C4.47011 45.8951 5.30413 46.3121 5.99653 46.588C5.99653 46.588 7.10492 46.3121 7.52092 45.7574C7.59514 45.6583 7.63225 45.5978 7.6508 45.5641C7.66447 45.527 7.67131 45.5245 7.6508 45.5641C7.60881 45.672 7.51213 46.0772 7.93693 46.588C8.63029 47.4205 9.52093 47.3585 10.016 47.4205C10.7553 47.5133 12.0951 46.8668 13.2054 45.2022C14.3148 43.5386 15.0081 42.9834 15.8402 42.0132C16.6703 41.043 21.2592 38.896 23.0492 35.9136C23.4643 35.2217 24.4349 35.4976 25.1273 36.0527C25.8207 36.6074 29.7025 36.7466 31.3656 33.9726C31.3656 33.9726 32.1518 41.2656 28.8705 46.3116C23.4643 54.6295 14.3145 56.7076 11.5415 64.4726H68.3805C68.3805 61.7895 68.2389 59.2133 67.9831 56.7353L66.0935 55.7383L67.7235 54.1983L67.6763 54.1777Z" fill="white"/>
<path d="M7.6508 45.5641C7.63225 45.5978 7.59514 45.6583 7.52092 45.7574C7.10492 46.3121 5.99653 46.588 5.99653 46.588C5.30413 46.3121 4.47011 45.8951 3.36271 45.0631C-0.586487 42.1022 1.4213 37.4386 2.25431 35.9137C3.08441 34.3887 10.5707 21.9123 10.85 20.2487C11.1254 18.5851 10.2944 18.5851 10.9877 16.7829C11.6801 14.9817 12.893 13.2976 14.9135 11.3762C17.688 8.74239 18.7973 7.12568 21.1987 6.6623C22.8334 6.34882 25.1274 6.6623 25.1274 6.6623C25.1274 6.6623 28.9634 2.41179 29.3325 1.8571C29.7026 1.30239 30.811 0.378584 31.1821 2.41178C31.5502 4.44498 32.6596 8.14178 32.6596 8.14178C34.3237 9.25068 36.3559 10.3601 36.3559 10.3601L40.6069 9.06568C40.6069 9.06568 42.9721 10.5394 46.3188 13.5677L45.9917 14.9119L47.8677 15.0174C49.2397 16.346 50.7231 17.9011 52.2456 19.6892L51.7446 21.1502L53.6206 21.3557C54.9223 22.9885 56.2339 24.7874 57.5112 26.7571L56.8745 28.2205L58.647 28.5765C59.7856 30.4608 60.8823 32.4843 61.9038 34.6537L60.9633 36.2611L62.8647 36.7982C63.8412 39.0795 64.729 41.5062 65.4926 44.0834L64.1518 45.6879L66.1606 46.4897C66.7866 48.9262 67.3003 51.4892 67.6763 54.1777L67.7235 54.1983L66.0935 55.7383L67.9831 56.7353C68.2389 59.2133 68.3805 61.7895 68.3805 64.4726H11.5415C14.3145 56.7076 23.4643 54.6295 28.8705 46.3116C32.1518 41.2656 31.3656 33.9726 31.3656 33.9726C29.7025 36.7466 25.8207 36.6074 25.1273 36.0527C24.4349 35.4976 23.4643 35.2217 23.0492 35.9136C21.2592 38.896 16.6703 41.043 15.8402 42.0132C15.0081 42.9834 14.3148 43.5386 13.2054 45.2022C12.0951 46.8668 10.7553 47.5133 10.016 47.4205C9.52093 47.3585 8.63029 47.4205 7.93693 46.588C7.51213 46.0772 7.60881 45.672 7.6508 45.5641ZM7.6508 45.5641C7.66447 45.527 7.67131 45.5245 7.6508 45.5641Z" stroke="#20201E" stroke-width="1.11079"/>
<path d="M38.3867 12.2114C38.3867 12.2114 62.5997 30.3274 62.5997 63.0434" stroke="#20201E" stroke-width="0.853114"/>
<path d="M7.64648 45.5674C7.66648 45.5274 7.66648 45.5274 7.64648 45.5674Z" stroke="#20201E" stroke-width="0.853114"/>
<path d="M33.3965 24.7773C33.8584 29.9516 31.4551 33.6484 31.3633 33.9716C31.3633 33.9716 37.1865 30.9687 37.7403 26.9936" stroke="#20201E" stroke-width="0.853114"/>
<path d="M31.3662 33.9773C31.3662 33.9773 35.248 35.8733 38.1133 34.6716" stroke="#20201E" stroke-width="0.853114"/>
<path d="M7.5166 45.7573C7.5166 45.7573 10.1045 42.4297 10.8457 40.9048" stroke="#20201E" stroke-width="0.853114"/>
<path d="M23.4661 14.8464C23.4661 14.8464 19.2034 14.8664 17.7825 17.2024C15.8421 20.3914 18.0588 20.8069 18.0588 20.8069C18.0588 20.8069 20.2766 21.5008 21.802 19.4212C23.426 17.2068 22.0794 15.8167 22.0794 15.8167L23.4594 14.8457L23.4661 14.8464Z" stroke="#20201E" stroke-width="0.853114"/>
<path d="M2.80664 38.5475C4.33204 38.132 5.30275 38.2712 5.99515 38.6867C5.99515 38.6867 5.30277 36.6071 6.54886 34.8044C7.79786 33.0022 9.87607 32.863 11.6788 29.3977" stroke="#20201E" stroke-width="0.853114"/>
<path d="M43.2861 16.7865L45.9161 15.1235" stroke="#20201E" stroke-width="0.853114"/>
<path d="M48.6963 22.7475L51.3263 21.5005" stroke="#20201E" stroke-width="0.853114"/>
<path d="M53.5459 29.6675L56.5959 28.4175" stroke="#20201E" stroke-width="0.853114"/>
<path d="M57.4258 37.5773L60.6158 36.4673" stroke="#20201E" stroke-width="0.853114"/>
<path d="M60.4766 46.8672L63.8065 45.8972" stroke="#20201E" stroke-width="0.853114"/>
<path d="M62.2764 56.2972L65.7464 55.8772" stroke="#20201E" stroke-width="0.853114"/>
</svg>
